# AuTiO

17 atoms
3 atom types

 -7.5 7.5 xlo xhi
 -7.5 7.5 ylo yhi
 0.0 39.5 zlo zhi

Masses

1 196.96657
2 47.867
3 15.9994

Atoms

1    1  0.000000000      0.000000000      0.000000000      0.000000000
2    1  0.000000000      0.000000000      0.000000000      2.500000000
3    1  0.000000000      0.000000000      0.000000000      5.000000000
4    1  0.000000000      0.000000000      0.000000000      7.500000000
5    1  0.000000000      0.000000000      0.000000000     10.000000000
6    1  0.000000000      0.000000000      0.000000000     12.500000000
7    3  -1.09800000      0.000000000      0.000000000     14.500000000
8    2  2.196000000      0.000000000      0.000000000     16.500000000
9    3  -1.09800000      0.000000000      0.000000000     18.500000000
10   2  2.196000000      0.000000000      0.000000000     20.500000000
11   3  -1.09800000      0.000000000      0.000000000     22.500000000
12   1  0.000000000      0.000000000      0.000000000     24.500000000
13   1  0.000000000      0.000000000      0.000000000     27.000000000
14   1  0.000000000      0.000000000      0.000000000     29.500000000
15   1  0.000000000      0.000000000      0.000000000     32.000000000
16   1  0.000000000      0.000000000      0.000000000     34.500000000
17   1  0.000000000      0.000000000      0.000000000     37.000000000
